[{"Title":"Attendance","Image":"attendance","Activity":"Attendance"},
  {"Title":"Leave Request","Image":"mail","Activity":"Leave"},
  {"Title":"Photo","Image":"camera","Activity":"Photo"},
  {"Title":"Inspection","Image":"store","Activity":"Inspection"},
  {"Title":"Report","Image":"report","Activity":"Report"}
]