[
	{
		"ActionName": "Download Brand",
		"ActionDetail":"Brand",
		"ActionType":"Download",
		"IsSyncRequired":true,
		"LastSync":""
	},
	{
		"ActionName": "Download Product",
		"ActionDetail":"Product",
		"ActionType":"Download",
		"IsSyncRequired":true,
		"LastSync":""
		
	},
	{
		"ActionName": "Download Product Group",
		"ActionDetail":"ProductGroup",
		"ActionType":"Download",
		"IsSyncRequired":true,
		"LastSync":""
		
	},
	{
		"ActionName": "Download Product Sub Group",
		"ActionDetail":"ProductSubGroup",
		"ActionType":"Download",
		"IsSyncRequired":true,
		"LastSync":""
		
	},
	{
		"ActionName": "Download Outlet",
		"ActionDetail":"Outlet",
		"ActionType":"Download",
		"IsSyncRequired":true,
		"LastSync":""
	
	},
	{
		"ActionName": "Upload Daily Sales",
		"ActionDetail":"DailySales",
		"ActionType":"Upload",
		"IsSyncRequired":true,
		"LastSync":""
		
	},
	{
		"ActionName": "Upload Competitor Sales",
		"ActionDetail":"CompetitorSales",
		"ActionType":"Upload",
		"IsSyncRequired":true,
		"LastSync":""
		
	},
	{
		"ActionName": "Upload Outlet Images",
		"ActionDetail":"Image",
		"ActionType":"Upload",
		"IsSyncRequired":true,
		"LastSync":""
		
	},
	{
		"ActionName": "Upload User Location",
		"ActionDetail":"UserLocation",
		"ActionType":"Upload",
		"IsSyncRequired":true,
		"LastSync":""
		
	},
	{
		"ActionName": "Upload User Activity",
		"ActionDetail":"UserActivity",
		"ActionType":"Upload",
		"IsSyncRequired":true,
		"LastSync":""
		
	}
]