[
	{
		"ActionName": "Download Area",
		"ActionDetail":"Area",
		"ActionType":"Download",
		"IsSyncRequired":true,
		"LastSync":""
	
	},
	{
		"ActionName": "Download Route",
		"ActionDetail":"Route",
		"ActionType":"Download",
		"IsSyncRequired":true,
		"LastSync":""
	
	},
	{
		"ActionName": "Download Brand",
		"ActionDetail":"Brand",
		"ActionType":"Download",
		"IsSyncRequired":true,
		"LastSync":""
		
	},
	{
		"ActionName": "Download Product",
		"ActionDetail":"Product",
		"ActionType":"Download",
		"IsSyncRequired":true,
		"LastSync":""
		
	},
	{
		"ActionName": "Download Product Group",
		"ActionDetail":"ProductGroup",
		"ActionType":"Download",
		"IsSyncRequired":true,
		"LastSync":""
		
	},
	{
		"ActionName": "Download Sub Group",
		"ActionDetail":"ProductSubGroup",
		"ActionType":"Download",
		"IsSyncRequired":true,
		"LastSync":""
		
	},
	{
		"ActionName": "Download Product Inventory",
		"ActionDetail":"ProductInventory",
		"ActionType":"Download",
		"IsSyncRequired":true,
		"LastSync":""
		
	},
	{
		"ActionName": "Download Outlet",
		"ActionDetail":"Outlet",
		"ActionType":"Download",
		"IsSyncRequired":true,
		"LastSync":""
	
	},
	{
		"ActionName": "Upload Sales Order",
		"ActionDetail":"SalesOrder",
		"ActionType":"Upload",
		"IsSyncRequired":false,
		"LastSync":""
		
	},
	{
		"ActionName": "Upload OutletStatus",
		"ActionDetail":"OutletStatus",
		"ActionType":"Upload",
		"IsSyncRequired":false,
		"LastSync":""
		
	},
	{
		"ActionName": "Upload Outlet Request",
		"ActionDetail":"OutletRequest",
		"ActionType":"Upload",
		"IsSyncRequired":false,
		"LastSync":""
		
	},
	{
		"ActionName": "Upload Outlet Stock",
		"ActionDetail":"OutletStock",
		"ActionType":"Upload",
		"IsSyncRequired":false,
		"LastSync":""
		
	},
	{
		"ActionName": "Upload Outlet Images",
		"ActionDetail":"Image",
		"ActionType":"Upload",
		"IsSyncRequired":false,
		"LastSync":""
		
	},
	{
		"ActionName": "Upload Location",
		"ActionDetail":"UserLocation",
		"ActionType":"Upload",
		"IsSyncRequired":false,
		"LastSync":""
		
	},
	{
		"ActionName": "Upload User Activity",
		"ActionDetail":"UserActivity",
		"ActionType":"Upload",
		"IsSyncRequired":false,
		"LastSync":""
		
	}
]
