[{"Title":"Attendance Report","Image":"attendance","Activity":"AttendenceReport"},
  {"Title":"Stockist Sales Order","Image":"report","Activity":"SalesOrderReport"},
  {"Title":"Stockist Collection","Image":"collection","Activity":"DistributorCollectionReportActivity"},
  {"Title":"Stockist Daily Sales","Image":"daily_sales","Activity":"DistributorDailySalesReportActivity"},
  {"Title":"Market Activities","Image":"survey","Activity":"MarketActivitiesReportActivity"},
  {"Title":"Stockist Stock","Image":"closing_stock","Activity":"DistributorStockActivity"},
  {"Title":"Stockist Dispatched","Image":"report","Activity":"DispatchActivity"},
  {"Title":"Stockist Partial Dispatched","Image":"report","Activity":"PartialDispatchedActivity"}
]